Convert Transport Poverty Hub Data to Rasters and Vectors • tphconv
…
# Check the output
g <- sf::read_sf(output_path)
g
unlink(tmp_file) # Clean up temporary file

Simple feature collection with 1600 features and 2 fields
Geometry type: POLYGON
Dimension:     XY
Bounding box:  xmin: 4015000 ymin: 2934000 xmax: 4071000 ymax: 3015000
Projected CRS: ETRS89-extended / LAEA Europe
# A tibble: 1,600 × 3
   opportunities_people gisco_id                                                   geom
                  <dbl> <chr>                                             <POLYGON [m]>
 1                 2625 CRS3035RES1000mN2934000E4033000 ((4033000 2934000, 4034000 293…
 2                  375 CRS3035RES1000mN2934000E4057000 ((4057000 2934000, 4058000 293…
 3                 7463 CRS3035RES1000mN2935000E4032000 ((4032000 2935000, 4033000 293…
 4                10955 CRS3035RES1000mN2935000E4033000 ((4033000 2935000, 4034000 293…
 5                 4087 CRS3035RES1000mN2935000E4034000 ((4034000 2935000, 4035000 293…
 6                 4804 CRS3035RES1000mN2935000E4037000 ((4037000 2935000, 4038000 293…
 7                  518 CRS3035RES1000mN2935000E4056000 ((4056000 2935000, 4057000 293…
 8                  112 CRS3035RES1000mN2935000E4057000 ((4057000 2935000, 4058000 293…
 9                 3515 CRS3035RES1000mN2936000E4032000 ((4032000 2936000, 4033000 293…
10                 7236 CRS3035RES1000mN2936000E4033000 ((4033000 2936000, 4034000 293…
# ℹ 1,590 more rows
# ℹ Use `print(n = ...)` to see more rows
…
